{
  "items": [
    {
      "username": "JustMaier",
      "modelCount": 4,
      "link": "https://civitai.com/api/v1/models?username=JustMaier",
      "image": "https://image.civitai.com/xG1nkqKTMzGDvpLrqFT7WA/6046154e-6d32-4500-8772-602edb4a4600/width=96/JustMaier.jpeg"
    },
    {
      "username": "Maxfield",
      "modelCount": 5,
      "link": "https://civitai.com/api/v1/models?username=Maxfield",
      "image": "https://image.civitai.com/xG1nkqKTMzGDvpLrqFT7WA/1fbde96f-8108-49aa-878f-d1fa17213df9/width=96/Maxfield.jpeg"
    }
  ],
  "metadata": {
    "totalItems": 67811,
    "currentPage": 1,
    "pageSize": 2,
    "totalPages": 33906,
    "nextPage": "https://civitai.com/api/v1/creators?limit=2&page=2"
  }
}